{
    "user" : {
       "pending":[
           "59b878c9173ba1230e2c66f4",
           "59b7a4962cbd9b4dfd9c3f8a",
           "59b818a0c71e30642dcaa503",
           "59b80a1e73ab7d08bec93c39",
           "59b7a5082cbd9b4dfd9c4363",
           "59b8f95a4742835b92cf5d4f"
       ],
       "categories":[
           {
               "id":"2",
               "name":"Später",
               "order":2,
               "instances":[
                   "59bb88e60f71b64551190e4e",
                   "59b873f3c71e30642dcb25ac",
                   "59b87399c71e30642dcb1805",
                   "59b80a9973ab7d08bec93f61",
                   "59b88b105aba0e486ec00013",
                   "59b88b105aba0e486ec00013"
               ],
               "isActive":false,
               "isMandatory":false
           },
           {
               "id":"1",
               "name":"Mein 2. Semester",
               "order":1,
               "instances":[
                   "59b7a7d82cbd9b4dfd9c6f0e",
                   "59b957f4784fbc6ff9435d00",
                   "59b7a6682cbd9b4dfd9c4fa6"
               ],
               "isActive":true,
               "isMandatory":true
           },
           {
                "id":"0",
                "name":"Mein 1. Semester",
                "order":0,
                "instances":[
                    "5898d63f79471cda6dcbee34",
                    "58a4e3ac6e4b9e7049ddb0c1",
                    "58ac5de96e4b9e704911fb63",
                    "5898d40a79471cda6dcbc90b",
                    "58a46eaf99961c77b574440d"
                ],
                "isActive":false,
                "isMandatory":true,
                "isComplete":true
          }
       ]
    }
}
